day,town,weather
11.01.2022,Канберра,27: солнечно и ветренно
08.01.2022,Москва,-5: облачно и холодно
09.01.2022,Лондон,7: ветренно и облачно
10.01.2022,Стокгольм,-1: облачно и дождь
10.01.2022,Лондон,7: солнечно и дождь
09.01.2022,Канберра,22: ветренно и дождь
10.01.2022,Прага,0: ливень и облачно
11.01.2022,Прага,-2: холодно и ясно
08.01.2022,Лондон,9: облачно и ливень
10.01.2022,Москва,-1: гололедица и дождь
08.01.2022,Прага,1: облачно и дождь
11.01.2022,Стокгольм,-4: ветренно и холодно
09.01.2022,Москва,-7: снегопад и холодно
08.01.2022,Стокгольм,-2: холодно и солнечно
08.01.2022,Канберра,28: жарко и солнчено
11.01.2022,Москва,-3: грязно и холодно
11.01.2022,Лондон,8: облачно и тепло
09.01.2022,Стокгольм,5: солнечно и ветренно
10.01.2022,Канберра,25: облачно и ливень
09.01.2022,Прага,-1: ясно и тепло
