[
  {
    "day": "11.01.2022",
    "town": "Канберра",
    "weather": "27: солнечно и ветренно"
  },
  {
    "day": "08.01.2022",
    "town": "Москва",
    "weather": "-5: облачно и холодно"
  },
  {
    "day": "09.01.2022",
    "town": "Лондон",
    "weather": "7: ветренно и облачно"
  },
  {
    "day": "10.01.2022",
    "town": "Стокгольм",
    "weather": "-1: облачно и дождь"
  },
  {
    "day": "10.01.2022",
    "town": "Лондон",
    "weather": "7: солнечно и дождь"
  },
  {
    "day": "09.01.2022",
    "town": "Канберра",
    "weather": "22: ветренно и дождь"
  },
  {
    "day": "10.01.2022",
    "town": "Прага",
    "weather": "0: ливень и облачно"
  },
  {
    "day": "11.01.2022",
    "town": "Прага",
    "weather": "-2: холодно и ясно"
  },
  {
    "day": "08.01.2022",
    "town": "Лондон",
    "weather": "9: облачно и ливень"
  },
  {
    "day": "10.01.2022",
    "town": "Москва",
    "weather": "-1: гололедица и дождь"
  },
  {
    "day": "08.01.2022",
    "town": "Прага",
    "weather": "1: облачно и дождь"
  },
  {
    "day": "11.01.2022",
    "town": "Стокгольм",
    "weather": "-4: ветренно и холодно"
  },
  {
    "day": "09.01.2022",
    "town": "Москва",
    "weather": "-7: снегопад и холодно"
  },
  {
    "day": "08.01.2022",
    "town": "Стокгольм",
    "weather": "-2: холодно и солнечно"
  },
  {
    "day": "08.01.2022",
    "town": "Канберра",
    "weather": "28: жарко и солнчено"
  },
  {
    "day": "11.01.2022",
    "town": "Москва",
    "weather": "-3: грязно и холодно"
  },
  {
    "day": "11.01.2022",
    "town": "Лондон",
    "weather": "8: облачно и тепло"
  },
  {
    "day": "09.01.2022",
    "town": "Стокгольм",
    "weather": "5: солнечно и ветренно"
  },
  {
    "day": "10.01.2022",
    "town": "Канберра",
    "weather": "25: облачно и ливень"
  },
  {
    "day": "09.01.2022",
    "town": "Прага",
    "weather": "-1: ясно и тепло"
  }
]